{
  "coc.nvim": { "branch": "release", "commit": "57d488a06bdb34de89acef3c2f3e9ce609d632ed" },
  "copilot.vim": { "branch": "release", "commit": "87038123804796ca7af20d1b71c3428d858a9124" },
  "lazy.nvim": { "branch": "main", "commit": "7e6c863bc7563efbdd757a310d17ebc95166cef3" },
  "noice.nvim": { "branch": "main", "commit": "481059e08198298a52067ac48a334262f117e355" },
  "nui.nvim": { "branch": "main", "commit": "53e907ffe5eedebdca1cd503b00aa8692068ca46" },
  "plenary.nvim": { "branch": "master", "commit": "2d9b06177a975543726ce5c73fca176cedbffe9d" },
  "telescope.nvim": { "branch": "master", "commit": "85922dde3767e01d42a08e750a773effbffaea3e" },
  "tokyonight.nvim": { "branch": "main", "commit": "c2725eb6d086c8c9624456d734bd365194660017" },
  "vim-tmux-focus-events": { "branch": "master", "commit": "b1330e04ffb95ede8e02b2f7df1f238190c67056" },
  "vim-tmux-navigator": { "branch": "master", "commit": "424b5caa154bff34dc258ee53cec5a8e36cf7ea8" }
}
